sim/power.vcd
$date
	Fri Jul 17 14:20:58 2026
$end
$version
	Icarus Verilog
$end
$timescale
	1ps
$end
$scope module tb_vcd_dump $end
$scope module u_dut $end
$var reg 128 ! y0_out [127:0] $end
$upscope $end
$upscope $end
$scope module tb_vcd_dump $end
$scope module u_dut $end
$var reg 128 " y1_out [127:0] $end
$upscope $end
$upscope $end
$scope module tb_vcd_dump $end
$scope module u_dut $end
$var wire 1 # valid_out $end
$upscope $end
$upscope $end
$enddefinitions $end
$comment Show the parameter values. $end
$dumpall
$end
#0
$dumpvars
x#
bx "
bx !
$end
#1000
0#
b0 "
b0 !
#45000
bx00000000000000000000000 "
bx00000000000000000000000 !
#55000
bx01011101101101010000000 "
bx11110101010000110011100 !
#155000
1#
#165000
0#
#175000
bx "
bx !
#295000
1#
#305000
0#
#435000
1#
#445000
0#
#575000
1#
#585000
0#
#715000
1#
#725000
0#
#855000
1#
#865000
0#
#995000
1#
#1005000
0#
#1135000
1#
#1145000
0#
#1275000
1#
#1285000
0#
#1415000
1#
#1425000
0#
#1555000
1#
#1565000
0#
#1695000
1#
#1705000
0#
#1835000
1#
#1845000
0#
#1975000
1#
#1985000
0#
#2115000
1#
#2125000
0#
#2255000
1#
#2265000
0#
#2395000
1#
#2405000
0#
#2535000
1#
#2545000
0#
#2675000
1#
#2685000
0#
#2815000
1#
#2825000
0#
#2955000
1#
#2965000
0#
#3095000
1#
#3105000
0#
#3235000
1#
#3245000
0#
#3375000
1#
#3385000
0#
#3515000
1#
#3525000
0#
#3655000
1#
#3665000
0#
#3795000
1#
#3805000
0#
#3935000
1#
#3945000
0#
#4075000
1#
#4085000
0#
#4215000
1#
#4225000
0#
#4355000
1#
#4365000
0#
#4495000
1#
#4505000
0#
#4635000
1#
#4645000
0#
#4775000
1#
#4785000
0#
#4915000
1#
#4925000
0#
#5055000
1#
#5065000
0#
#5195000
1#
#5205000
0#
#5335000
1#
#5345000
0#
#5475000
1#
#5485000
0#
#5615000
1#
#5625000
0#
#5755000
1#
#5765000
0#
#5895000
1#
#5905000
0#
#6035000
1#
#6045000
0#
#6175000
1#
#6185000
0#
#6315000
1#
#6325000
0#
#6455000
1#
#6465000
0#
#6595000
1#
#6605000
0#
#6735000
1#
#6745000
0#
#6875000
1#
#6885000
0#
#7015000
1#
#7025000
0#
#7155000
1#
#7165000
0#
#7295000
1#
#7305000
0#
#7435000
1#
#7445000
0#
#7575000
1#
#7585000
0#
#7715000
1#
#7725000
0#
#7855000
1#
#7865000
0#
#7995000
1#
#8005000
0#
#8135000
1#
#8145000
0#
#8275000
1#
#8285000
0#
#8415000
1#
#8425000
0#
#8555000
1#
#8565000
0#
#8695000
1#
#8705000
0#
#8835000
1#
#8845000
0#
#8975000
1#
#8985000
0#
#9115000
1#
#9125000
0#
#9255000
1#
#9265000
0#
#9395000
1#
#9405000
0#
#9535000
1#
#9545000
0#
#9675000
1#
#9685000
0#
#9815000
1#
#9825000
0#
#9955000
1#
#9965000
0#
#10095000
1#
#10105000
0#
#10235000
1#
#10245000
0#
#10375000
1#
#10385000
0#
#10515000
1#
#10525000
0#
#10655000
1#
#10665000
0#
#10795000
1#
#10805000
0#
#10935000
1#
#10945000
0#
#11075000
1#
#11085000
0#
#11215000
1#
#11225000
0#
#11355000
1#
#11365000
0#
#11495000
1#
#11505000
0#
#11635000
1#
#11645000
0#
#11775000
1#
#11785000
0#
#11915000
1#
#11925000
0#
#12055000
1#
#12065000
0#
#12195000
1#
#12205000
0#
#12335000
1#
#12345000
0#
#12475000
1#
#12485000
0#
#12615000
1#
#12625000
0#
#12755000
1#
#12765000
0#
#12895000
1#
#12905000
0#
#13035000
1#
#13045000
0#
#13175000
1#
#13185000
0#
#13315000
1#
#13325000
0#
#13455000
1#
#13465000
0#
#13595000
1#
#13605000
0#
#13735000
1#
#13745000
0#
#13875000
1#
#13885000
0#
#14015000
1#
#14025000
0#
